*** Darwin 15x16 ***
Turn = 0.
  0123456789012345
0 ..frt.f.tttfh..r
1 f.trf..ff.h...t.
2 hftr.rtt.f......
3 rff.frthtfhhr...
4 .hr.fffthrh.rttt
5 ..h.tt.h.r.htt.h
6 .ftt..frf..fh.r.
7 f.tht...fffthhhr
8 rr..f....r.fr..f
9 ..hh.f.thtt.tfr.
0 .r...th.h.hr.f.r
1 rrf.rf.r.ft.fttt
2 .ff...tf...f.tf.
3 f..fr.ftf.tt.trf
4 r.tthrf.hrth.h..

Turn = 3.
  0123456789012345
0 ..fr.rf.tttthr..
1 f.rrfr.tt.t...t.
2 rft.rrrt.t......
3 rtt.fr.tttrr....
4 .tt.tffttttrrttr
5 ..h.ttt...rrrt.r
6 rttt.r..f..ftrrr
7 r.ttt...fffttr..
8 ...tr.rrh..tt..f
9 rh..rf.t.tt.tt..
0 ...rrtt...tt.ttt
1 r.f..tt..tt.tttt
2 r.f..ttfh..f.tt.
3 rr.f..ttf.tt.ttt
4 .rttt.trr.tt...h

Turn = 6.
  0123456789012345
0 .rrrrrrrtttrr...
1 f....r.tt.tr.rtr
2 r.rr.r.t.t...r.r
3 rrr.trrrrtt.....
4 rrt.trtr.ttt.rrr
5 r.t.tttr..ttrrr.
6 rrrtt..rf..ttr..
7 ..ttt...ffftt..r
8 ...rt...h..tt..f
9 rr.rtr.t.tt.tt..
0 r...rtr.r.tt.ttt
1 ..rr.tt..tt.tttt
2 .rr..ttth..t.tt.
3 rr.t..ttf.tt.ttt
4 r..tt.ttt.tt...t

Turn = 9.
  0123456789012345
0 rr.r.rrtrrr....r
1 frr.r..trr.rr.tt
2 .r..r.tt.rr...tt
3 rrr.tttt.tr.r...
4 rrrtttttrtttr..r
5 rrr.trrr..tttrrr
6 .r.trt..f..ttt..
7 ..trt...ffttt...
8 r.r.t...h..tt..f
9 ..rr.r.t.tt.tt..
0 r.rrrrr..ttt.ttt
1 .r..rrr..tt.tttt
2 rr...r.tt..t.tt.
3 r..t.rttt.tt.ttt
4 .r.tt.ttt.tt...t

Turn = 12.
  0123456789012345
0 rrr.r..ttt.r.rt.
1 rrr.rr.t.tr...tt
2 r...rrtttt....tt
3 rr..tttt.ttrr..t
4 rr.ttttt.tttt...
5 rr.tttttr.tttttt
6 r.rt..r.r..ttt..
7 ..tttt..ttttt...
8 ..t.t..r...tt..f
9 rrt.rrr..tt.tt..
0 r.r...rr.ttt.ttt
1 r.r....r.tt.tttt
2 r.rt..ttt..t.tt.
3 ...tttttt.tt.ttt
4 r..ttrttt.tt...t

Turn = 15.
  0123456789012345
0 rr.rr..tttrr..rr
1 rrr.r.tr.t...rt.
2 rr...rtttt....tt
3 rrr.tttt.ttt..rr
4 .r.ttttt.tttt...
5 ...ttttt..tttttt
6 r.tt.rr.r..ttt..
7 rrrtttr.ttttt...
8 rrr.tt.....tt..f
9 ..t.rr...tt.tt..
0 .tr..r...ttt.ttt
1 .rr...t.ttt.tttt
2 r..t..ttt..t.tt.
3 .r.tttttt.tt.ttt
4 r..tttttt.tt...t

Turn = 18.
  0123456789012345
0 r.rr..rttt...r.r
1 rrr...tt.t....rr
2 rr...tttttt...tt
3 rrr.tttt.ttt....
4 ..tttttt.tttttrr
5 .r.ttttt..ttttrr
6 rrrrrr.r.r.ttt..
7 rrrtttr..tttt...
8 ..rrrt.....tt..f
9 rrt......tt.tt..
0 .rrr.....ttt.ttt
1 .rr..rt.ttt.tttt
2 ...t..ttt..t.tt.
3 ..rrttttt.tt.ttt
4 .r.tttttt.tt...t

*** Darwin 23x9 ***
Turn = 0.
  012345678
0 f.thh.ft.
1 ..hf.tfrf
2 .ththhh.r
3 .rtt..rt.
4 t.htht.t.
5 rhhfrhth.
6 rhhh.ff.t
7 .rt.ht.ht
8 tffth.hhf
9 .h.r.ff.t
0 .r..ttrf.
1 f.rr.f...
2 .fh.htt.t
3 htfhttfhh
4 hrtr.rhrh
5 ..ftrt.rh
6 ..fff..ht
7 rhr.hhh.h
8 ..rt.hrtf
9 ft.r.rf.f
0 hfh.rrrr.
1 ffrt...fr
2 rh.trr..h

Turn = 5.
  012345678
0 f.ttt.t.r
1 ..tt.ttrr
2 .rrt.t..t
3 .rrttt.tt
4 thrtrt.t.
5 rrr.r.tt.
6 .rtr.rr.t
7 rrrrrrr.t
8 rrrr.rrrt
9 ..rrr..rt
0 ...rrrrr.
1 f...rr..t
2 rr.ttrt.t
3 rrtttttrt
4 rttt.rth.
5 r.rrrrh..
6 .rrrr.r.t
7 ..r..hhtt
8 .rrr.ttrr
9 frrr..t.r
0 h.t.r.t.r
1 rrtrrr.f.
2 rrrttrr..

Turn = 10.
  012345678
0 f.ttt.tt.
1 ..rrrtttt
2 .rrr.t..t
3 r.r.rr.tt
4 rr.rrrrr.
5 rrrrrrrr.
6 rrrtt..rr
7 rrtt...rr
8 .rr...rrr
9 rrrr..rr.
0 rrrrr...t
1 r.rrr.r.t
2 ..r.rr.tt
3 rrr.rrrrr
4 rrrrrrrr.
5 .r.rrrr.t
6 rrrr..r.t
7 rrr.r..rr
8 .r.rrrr.r
9 rrrr..rrr
0 rrrrr.r..
1 rtr..rtrr
2 .rr.ttt..

Turn = 15.
  012345678
0 f.trr.tt.
1 r.rrrrttt
2 ..r.rtr.t
3 rrrr..rrr
4 rrrr.rrrr
5 rrr.tt.tr
6 rrtrr.rt.
7 rrrrrr...
8 rrrrrr...
9 rr....r..
0 rr..r.r.t
1 rrrrr.rtr
2 rr.rrrrrr
3 rr.rrrrr.
4 .rr.r.rrr
5 rr....r.r
6 rrr..rrrr
7 rrrrrrr..
8 rr.rrrr..
9 rrr...r..
0 rrr...trr
1 .rtr.ttrr
2 rtt.ttt.r

Turn = 20.
  012345678
0 rrrrrrrrt
1 .rrr.rr.t
2 rrrrrrr.t
3 rr.....rr
4 rr..rr.rr
5 rrrrrrrtt
6 rrr.t..rr
7 rrr..r...
8 .rrrr....
9 rrrrrr..r
0 rrrrrr.rr
1 rrr.r.rtr
2 rrrrr..rt
3 .r.rr..rr
4 rr.r..rrr
5 r.rrrrrr.
6 r.rrrr.r.
7 rrrr...r.
8 rr.r.rr.r
9 ..r.r.r.r
0 rrrr.ttrr
1 rr...tttt
2 rr.rttt.t

Turn = 25.
  012345678
0 rrrrrrrrr
1 rrrr.rrrr
2 rrrr.r.r.
3 rrrr...rr
4 rrr..r.r.
5 r.rr..rrr
6 rr.r..r.r
7 r.rrrrrrr
8 rrrrrr.r.
9 rrrr.rrrr
0 rrr.rrrr.
1 rrr..rr.r
2 rrrrrrr.r
3 .rr....r.
4 rr.r..r.r
5 rrr.rrr..
6 rr.......
7 rr..r.rrr
8 rr.rrrr..
9 rr.rrrrrr
0 rrrrt.rrr
1 .rr.t.ttt
2 ..rrttt.t

*** Darwin 22x17 ***
Turn = 0.
  01234567890123456
0 .....hhtrf.r.r...
1 rtt..r.t..t.....f
2 r...r......ff.frt
3 f..........f.hh..
4 ..ft..h..ff.t.hf.
5 r.h........httf..
6 .......h.....f...
7 ...hft.......r...
8 .h.....t.....tr.r
9 ..f...rrr.h.r..h.
0 ..fr...h.r..ht..r
1 ...t...h.h.t.....
2 ....fh...tr.t.rf.
3 .......r.........
4 ..r..f.tt....fh.r
5 f.r..h...t.......
6 ....ft......t...r
7 ......r..f.......
8 ..rf....ftfr.....
9 h.r...........fr.
0 r.....r...r..f.t.
1 .h.r.t..r..f.....

Turn = 2.
  01234567890123456
0 r..hr..trr.....r.
1 .tt.r..t.rt.....f
2 ..r........ff.fr.
3 f....r.....fh...r
4 ..tt.....ffhtthf.
5 h...........ttf..
6 ......h..h...t...
7 r..hft.......t...
8 ...h...trr..ht..r
9 ..r....r.hr.....r
0 ..rt..r......tr.r
1 ...t.r.r..tt...h.
2 ....f....tt.t..fr
3 .....h.r.........
4 r....f.r.r...fh..
5 f....t...t......r
6 ....ft.....rt....
7 ..r.r....t.......
8 ...r.r..ftf......
9 .r............f.r
0 hhr.....rr...f.t.
1 ..r..tr....f.....

Turn = 4.
  01234567890123456
0 .rrrr..ttt.....rr
1 .tt....t..t.....f
2 ..t........ff.f..
3 f........r.ft....
4 ..tt.....ffhtttf.
5 h....r......ttt.r
6 ........rr.hht...
7 ..rttt...h...t..r
8 ..r..hht.....tr..
9 r......tr.....r..
0 ...t.........t...
1 ...rr.....tt...hr
2 ....f.r..tt.t..rr
3 .....rrr........r
4 r....t...r.r.fh..
5 r....t...t.r.....
6 ....tt......t....
7 ..r......t......r
8 .h...r.tttf......
9 r.r...........f..
0 ....r........f.t.
1 rr...rr.rr.f.....

Turn = 6.
  01234567890123456
0 .rtr..tttt.....rr
1 .tt....t..t.....f
2 ..t........rf.f..
3 f........r.rt....
4 ..tt....rrrttttt.
5 h.r......r..ttt..
6 ..r..r...h.httr.r
7 ...ttr.r.....t..r
8 .....rr......t...
9 ......rr.....t...
0 ...t.........t..r
1 r.r.......tt...hr
2 ....fr...tt.trr..
3 ...r.r...........
4 r....tr....rrrr..
5 .....t.r.t...r..r
6 ....tt......t....
7 rr.....r.t.......
8 rh....r.ttt......
9 ......r.......f..
0 .r...r.....r.f.t.
1 r.rr.....rr......

Turn = 8.
  01234567890123456
0 .rt...tttt....r.r
1 .tt....t..t.....r
2 ..tr....r..rr.f..
3 f.........rrr....
4 ..tt.....rrrtttt.
5 h.r....r.h.rttt..
6 ..r.r......tttt.r
7 ...ttt.......t.r.
8 .....tt......t..r
9 ....rr.......t..r
0 ...t.........t...
1 r.........tt.....
2 r...r....tt.trr..
3 r...rr.....r.r.hr
4 ......r..........
5 ...r.t...t..r....
6 ....ttrr....trr..
7 rr....r.rt.......
8 rr....rr.ttr.....
9 r.............f..
0 r........r...f.t.
1 .r.r.r......r....

Turn = 10.
  01234567890123456
0 .rt...ttrt..r...r
1 .tt....tr.tt...r.
2 ..t......rr..rf..
3 f..t...r.hr..t...
4 ..tt......r.tttt.
5 h.t.......rtttt.r
6 ..rt.......tttt.r
7 ...ttt.......tt.r
8 .....tt......t...
9 ...tr........t...
0 ...t.........t...
1 ..........tt....r
2 r.rr.....ttttrt..
3 .............r...
4 r....r..r........
5 ....rr...t.....h.
6 .r.ttrr..r.rr....
7 r..rr..r.t.......
8 r...r...trt.rrr..
9 r........r....f..
0 r............f.t.
1 r...rr........r..

Turn = 12.
  01234567890123456
0 .rt...trrrr...r..
1 .tt....trrrt.r...
2 ..t....t.hr..t...
3 f..t....r....tr.r
4 ..tt....r...ttttr
5 h.t........tttt.r
6 ...t......ttttt..
7 ...ttt.......tt..
8 ..r..tt......t...
9 ...tt........t..r
0 ...t.........t...
1 ..........tt.....
2 .........ttttrt..
3 ..r..........r...
4 rr.rr.r..t.r.....
5 ....rr...t.......
6 r..tt......r.....
7 r..r.r...t.....h.
8 r.rrrr..rtt.r.r..
9 r.........r..rr..
0 ..r..r......rr.t.
1 ....r...........r

Turn = 14.
  01234567890123456
0 .rt...trrrr.r....
1 .tt....rrrrrr...r
2 ..t....t.h..rt...
3 f..t...t.....tr..
4 ..tt..r.....ttttr
5 h.t........tttt.r
6 ...t......ttttt..
7 ...ttt.......tt.r
8 .....tt......t...
9 ...tt........t...
0 ..rt.........t...
1 ..........tt.....
2 .r....r..ttrttt..
3 ...........r.t...
4 ..r......t.......
5 r.rrr....t.......
6 r..rrr.......r...
7 .r..r....t.......
8 r....r...tt.r....
9 r.rrrr.....rr..h.
0 ...rrr..r...rr.tr
1 ............r.r..

Turn = 16.
  01234567890123456
0 .rt...ttrrrr.r..r
1 .tt....t.rrrr....
2 ..t....trr...r...
3 f..t...t.....tt..
4 ..ttr.......ttttt
5 h.t........tttt.r
6 ...t......ttttt.r
7 ...ttt.......tt..
8 .....tt......t...
9 ...tt........t...
0 .r.t..r......t...
1 ..........tt.....
2 ..r......tttttt..
3 ...........t.t...
4 r........t.......
5 r.rr.....t.......
6 ..rrr..........r.
7 r..rrr...t.......
8 r...rrr..trr.r..r
9 r......r..r....h.
0 ...r.........r.t.
1 ..rrr...r..r.r.r.

Turn = 18.
  01234567890123456
0 .rt...ttttr.rr...
1 .tt....t.tr...r.r
2 ..t....ttt.r..t..
3 f..t...t.....tt..
4 ..ttt.......ttttt
5 h.t........tttt.r
6 ...t......tttttr.
7 ...ttt.......tt..
8 .r...tt......t...
9 ...tt.t......t...
0 ...t.........t...
1 ..........tt.....
2 .........tttttt..
3 r..........t.t...
4 ..rrr....t.......
5 rr.......t.......
6 r............r..r
7 .rrr..r..t......r
8 r..rrr..rrr......
9 r.......rr.r.r.r.
0 ...rr.........rr.
1 ..r..r....r.r...r

Turn = 20.
  01234567890123456
0 .rt...tttt.rr....
1 .tt....t.tt.....r
2 ..t....ttt...tt..
3 f..t...t.....tt.r
4 ..ttt......tttttt
5 h.t........tttt..
6 .r.t......tttttt.
7 ...ttt.......tt.r
8 .....tt......t...
9 ...tt.t......t...
0 ...t.........t...
1 r.........tt.....
2 ...rr....tttttt..
3 ...........t.t...
4 r........t...r..r
5 .r.......t.......
6 .rr.rr...........
7 .r......rr...rr..
8 rr......rr.....r.
9 ..rr.....r......r
0 ....r.r...rr.....
1 r..r...rr...rrrr.

Turn = 22.
  01234567890123456
0 .rt...tttt....r.r
1 .tt....t.ttt.....
2 ..t....ttt...tt..
3 f..t...t.....tt.r
4 .rttt......tttttr
5 h.t........tttt..
6 ...t......tttttt.
7 ...ttt.......tt..
8 .....tt......t...
9 r..tt.t......t..r
0 ...tr........t...
1 ...t......tt.....
2 r........tttttt.r
3 ...........t.r...
4 ....rr...t...r...
5 ...r.....t...r...
6 r.......r......r.
7 r........r..r...r
8 ..r.....r.r......
9 .....r..r....r...
0 rr....rrr...r....
1 r.r..r.r..r.r.rr.

Turn = 24.
  01234567890123456
0 .rt...tttt.....rr
1 .tt....t.ttt.....
2 .rt....ttt...tt..
3 f..t...t.....trr.
4 ..ttt......tttttt
5 h.t........tttt..
6 ...t......tttttt.
7 r..ttt.......tt..
8 .....tt......t...
9 ...rt.t......t...
0 r..tt........t..r
1 ...t......tt....r
2 ....rr...tttttt..
3 ...........t.t...
4 ........rt...r.r.
5 .....r...t...r..r
6 r................
7 ..........rr.r...
8 .........r..r....
9 r.....rr....r....
0 r.r...rr..r......
1 rrr...rrr.r..r.r.

*** Darwin 23x10 ***
Turn = 0.
  0123456789
0 h...h..f..
1 ....r.r.th
2 .f....r.r.
3 .rht.t.hff
4 frrtt.frfh
5 ..frhhf...
6 .....fr...
7 .fr.hf...f
8 t....t...r
9 r.hf......
0 hhth.th.t.
1 h.r..hrh.r
2 ..r...tff.
3 .f..t.hh..
4 r....t...t
5 h.r..fthtt
6 r..h.rf..h
7 .hff..h.h.
8 f...tt....
9 t.t...th.f
0 ..f.r.....
1 .....rf.h.
2 tr..tf.rhf

Turn = 1.
  0123456789
0 .h.h...f..
1 ...r.rr.tt
2 .f......r.
3 .rtt.t.rrf
4 frrtthfrrh
5 ..fth.f...
6 .....f.r..
7 .rr.hf...f
8 t....t..r.
9 th.t......
0 hhtt.t.htr
1 hrr..hrh..
2 ......rff.
3 .f..th..h.
4 r....t...t
5 rh...rtttt
6 .hrh.rf..t
7 ..ff.h...h
8 f...tt....
9 t.t...t..f
0 ..fr...hh.
1 .....rf...
2 tr..t.rrhf

Turn = 2.
  0123456789
0 ..hh..rf..
1 ..r.r...tt
2 .f......r.
3 rrtt.t.rrf
4 f.ttthfrrh
5 ..ftt.f...
6 .....f..r.
7 .rr.hf...f
8 t....t.r..
9 th.t......
0 hhrt.t.htt
1 rrr..ttt..
2 ......ttf.
3 rf..th...h
4 r....t...t
5 .hh..rtttt
6 ..rh.rf..t
7 ..rrh....h
8 f...tt....
9 t.t...t.hf
0 ..rr......
1 ......fh..
2 t.r.ttrrhf

Turn = 3.
  0123456789
0 ..hh..rf..
1 .r.r....tt
2 .r.....r..
3 rrtt.tr.rr
4 f.ttthfrrh
5 ..ftt.f...
6 ..r..f...r
7 ....ht...f
8 tt...tr...
9 thrt......
0 hhrt.t.htt
1 rr...ttt..
2 r.....ttf.
3 rf..th...h
4 .h...t...t
5 ...h.rtttt
6 ..rh.rf..t
7 ..rh.....h
8 t..rtt..h.
9 t.t...t..f
0 ..r.......
1 ..r...rh..
2 t..rttrrrr

Turn = 4.
  0123456789
0 ..hh.r.f..
1 rrr.....tt
2 .r....r..r
3 r.tt.trrr.
4 ..ttttf.rh
5 r.rtt.f...
6 ..r..f...r
7 ....ht...f
8 ttr..rr...
9 ttrt......
0 rh.t.t.htt
1 r....ttt..
2 rr....ttf.
3 rf..tt...t
4 .h...t...t
5 ....httttt
6 ..rr.tf..t
7 ..rr....hh
8 t...tt....
9 t.tr..t..f
0 ..t...r...
1 ....r..h.r
2 t.rr.ttrr.

Turn = 5.
  0123456789
0 .rhhr..f..
1 rr......tr
2 .r...r.r.r
3 ..tt.tr.r.
4 r.ttttf.rr
5 ..ttt.f...
6 r.t..f...r
7 ..r.ht....
8 ttr.rr...r
9 tt.t......
0 tt.t.t.ttt
1 t....ttt..
2 rr....ttf.
3 rhr.tt...t
4 .....t...t
5 ....httttt
6 ..rr.tt.ht
7 .r.r.....t
8 t...tt....
9 t.t...r..f
0 ..trr.r..r
1 .......h..
2 t.r.rttrr.

Turn = 6.
  0123456789
0 .rhrr..f..
1 r......rtt
2 r.r.r....t
3 ..tt.tt..r
4 ..ttttf.rr
5 r.ttt.f...
6 ..r..t....
7 r.t.ht...r
8 ttttr.....
9 tt.t.....t
0 tt.t.t.ttt
1 r....ttt..
2 rr....ttt.
3 rr.rtt...t
4 .....t...t
5 ....httttt
6 ....rtt.tt
7 t.r.r....t
8 t...tt....
9 t.t.r.r..r
0 ..tt..r..r
1 .....r.h..
2 t..rr.trr.

Turn = 7.
  0123456789
0 r.rrr..r..
1 r......rtt
2 ...rr....t
3 r.tt.tt..r
4 ..ttttt.r.
5 ..ttt.f.r.
6 r.r..t....
7 r.t.ht....
8 rtttr....r
9 r.rt.....t
0 tt.t.t.ttt
1 r....ttt..
2 rr....ttt.
3 rr.rrt...t
4 .....t...t
5 ....htrttt
6 ....rrr.tt
7 t....r...t
8 t.t.tt....
9 t.t.t..rrr
0 ..tt.r.r..
1 .......t..
2 t..r.rttr.

Turn = 8.
  0123456789
0 r.rr...r..
1 r...r..rtt
2 ...rr....t
3 ..tt.tt..t
4 r.tttttr..
5 ..ttt.f...
6 r.r..t..r.
7 rt..tt....
8 rttrr....r
9 .rrr.....r
0 tt.t.t.ttt
1 r....ttt..
2 rr..r.ttt.
3 rr.r.t...t
4 .....tr..t
5 ....ttrttt
6 ....rr..tt
7 t.....r..t
8 t.t.tt...r
9 t.t.tr.rr.
0 ..tt....r.
1 .......r..
2 t..r.rrr.r

Turn = 9.
  0123456789
0 r.rr..r...
1 .r.rr.r.tt
2 .....r...t
3 ..tt.tt..t
4 ..ttttrr..
5 r.ttt.t...
6 .r...t....
7 trr.tt..r.
8 rttrr....r
9 .rrr.....r
0 tt.t.t.ttt
1 rr..rttt..
2 r.....ttt.
3 rr...tr..t
4 ...r.tr..t
5 ....rr.ttt
6 ....rr..tt
7 t......r.r
8 t.t.tr.r.r
9 t.t.tr..r.
0 ..tt.....r
1 .......rr.
2 t.r..rr..r

Turn = 10.
  0123456789
0 rrrr.r....
1 ..r..rr.tt
2 ......t..t
3 ..tt.tt..t
4 ..ttttrr..
5 ..ttt.r...
6 t.r..t....
7 rrr.tt....
8 rrrr....rr
9 .t.tr....r
0 ttrtrt.ttt
1 tt...ttt..
2 r.....ttt.
3 r....tt..t
4 .r..rtt..t
5 ...rrr.ttt
6 .....r..tt
7 t....r.rrr
8 t.t.t....r
9 t.t.tt...r
0 ..tt...r.r
1 ......r..r
2 tr...r...r

Turn = 11.
  0123456789
0 rrrrr.r...
1 ...r.r..tt
2 ......t..t
3 ..tt.ttr.t
4 ..ttttr...
5 ..tttr....
6 t..r.t....
7 rrr.tt....
8 rrr......r
9 .tttt...rr
0 tt.ttt.ttr
1 rtr..ttt..
2 r.....ttt.
3 .r..rtt..t
4 ....rtt..t
5 .r..r..ttt
6 ...r.rrrtt
7 t.......rr
8 t.t.t....r
9 t.t.tt.r.r
0 ..tt..r..r
1 .........r
2 rr....r..r

Turn = 12.
  0123456789
0 r.rrr.r...
1 .r..r...tt
2 .....ttr.t
3 ..tt.tt..t
4 ..tttrr...
5 ..tttt....
6 t...rt....
7 rr.rtt....
8 rrr......r
9 .r.tt...rr
0 rttttt.trr
1 rt...ttt..
2 r.r.r.ttt.
3 ..r.rtt..t
4 .....tt..t
5 ...r.r.rtt
6 .r....rrtt
7 t..r....tt
8 t.t.t..r.r
9 t.t.ttr..r
0 ..tt.....r
1 .........r
2 rr.....r.r

Turn = 13.
  0123456789
0 r.r.rr....
1 ...r.r.rtt
2 .r...tt..t
3 ..tt.tt..t
4 ..ttttt...
5 ..tttt....
6 t...tt....
7 rr.rrr....
8 tt.......r
9 rtttt...rr
0 rttttt.t..
1 .t..rttttr
2 r.r.r.ttt.
3 ...r.tt..t
4 .....rt..t
5 ..r..rrrtt
6 ......r.tt
7 tt.....rtr
8 t.ttt....r
9 t.t.ttt..r
0 ..tt.....r
1 r........r
2 .r......rr

Turn = 14.
  0123456789
0 r.r.rr.r..
1 ......r.tt
2 ...r.tt..t
3 .ttt.tt..t
4 ..ttttt...
5 ..tttt....
6 t...tt....
7 rr.rr.....
8 rt...r..rr
9 rtttt..r..
0 rtttrt.t..
1 rt..rtttt.
2 .r..r.tttt
3 ....rtt..t
4 .....rtr.t
5 .r...rr.tt
6 .....r.rtt
7 tt......tr
8 t.ttt....r
9 t.t.ttt..r
0 r.tt.....r
1 .........r
2 ..r.....rr

Turn = 15.
  0123456789
0 rr.....r..
1 ....rt.rtt
2 ...r.tt..t
3 .ttr.tt..t
4 ..ttttt...
5 ..tttt....
6 t...tt....
7 rt.......r
8 rt.rr..r..
9 rrtttrr...
0 rrttrt.t..
1 tt..rtttt.
2 r....rtttt
3 ....rttr.t
4 ....r.t..t
5 r...r..rtt
6 ....r.r.tt
7 tt......rr
8 t.ttt....r
9 r.t.ttt.r.
0 r.tt.....r
1 ........rr
2 ...r....r.

Turn = 16.
  0123456789
0 rr......r.
1 .....t.rrt
2 ...rrtt..t
3 .ttt.tt..t
4 ..ttttt...
5 ..tttt....
6 t...tt...r
7 rt........
8 rt.rr.r...
9 rrtrrrr...
0 rtttr.tt..
1 tt..rttrt.
2 r....rrrtt
3 ....rttr.t
4 ...r..tr.t
5 r..r....tt
6 ...r....tt
7 tt....r.rr
8 r.ttt....r
9 r.t.tttr..
0 r.tt....rr
1 .........r
2 ....r..r..

*** Darwin 9x13 ***
Turn = 0.
  0123456789012
0 frr.ff.httff.
1 tfrf.rtr.th.t
2 .thh..ht.hrrh
3 rtfhr.rtffrh.
4 hhrrtr....fff
5 ffrthhfrtrrff
6 frhfhhhth.hh.
7 rrthhffr.h...
8 frhrftt.r.t.f

Turn = 1.
  0123456789012
0 frr.ff.tttff.
1 tfr.rrrr.tt.t
2 rthh.hrt.httt
3 .tfh.r.ttrrt.
4 htrrrr....rtf
5 fttrthrtttrff
6 rrhrhhhrh.hh.
7 rrtttftrh....
8 frhrrttr..t.f

Turn = 2.
  0123456789012
0 frr.fr.tttff.
1 tfhrrrrr.tt.t
2 tthhh.rt.httt
3 .tf...rttr.t.
4 htrrrrr..rrtf
5 fttrrh.rttrff
6 rrtrhhhth.hh.
7 rrtttttth....
8 rrhrrtrr..t.f

Turn = 3.
  0123456789012
0 frr.rrrttttf.
1 trrrrr.r.tt.t
2 ttthh.rrrhttt
3 .tt...r.tt.t.
4 htrrrrr..rrrf
5 frtrr.rrtrrff
6 rrttrhhth.hh.
7 rrtttttth....
8 rrhrrrrr..t.f

Turn = 4.
  0123456789012
0 frr.rrrttttf.
1 tttrr.rt.rt.t
2 tttrh.rtrtttt
3 .tt....rtt.t.
4 hrttrr...trrf
5 frttrrrtrtrrf
6 rrttrhttr.rr.
7 rrttrttrh....
8 rrhrrrrr..t.f

Turn = 5.
  0123456789012
0 frrr..rrtttf.
1 tttrrrrr.rt.t
2 ttttt.rrrtttt
3 .tt....rrt.t.
4 hrrtrrr..trrf
5 frttrr.rtttrf
6 rrttrrtrt.tt.
7 rtttrrtrh....
8 rrrrrrrr..t.f

Turn = 6.
  0123456789012
0 trrr..rttttt.
1 trttr.rrrrt.t
2 tttttr.r.tttt
3 .tt..rrrr.rt.
4 hrrtr.r..tttf
5 rrttrr.rrtrrf
6 rttttrtrr.tt.
7 rttrrttrh....
8 rrrrrrr.r.t.f

Turn = 7.
  0123456789012
0 ttrr..rtrttt.
1 ttttr.rrrtt.t
2 ttttttrr.tttt
3 .tt..tr..rtr.
4 htrtrr..rttrf
5 tttrr.rr.ttrf
6 rtttttrr.rtt.
7 rrrtttrrh....
8 rrttrrr..rt.f

Turn = 8.
  0123456789012
0 ttrr.r.rrttt.
1 ttttt.rrrtt.t
2 tttttrrr.tttt
3 .tt.rrr.rttr.
4 htrtr....trrf
5 ttttr.tr.trtf
6 rttttttr.rrt.
7 rrtrttrrh....
8 rrrrrr.r.r.rf

Turn = 9.
  0123456789012
0 tttrr.rr.ttt.
1 tttttr.rrtt.t
2 ttttrrrrrtttt
3 .tt.rr...tt.r
4 htttrr...trrf
5 ttttr.tr.tttf
6 ttttttt.rttt.
7 trrrtrrrh....
8 trrrtr..r.rrr

Turn = 10.
  0123456789012
0 tttttrr.rttt.
1 ttttrrrrrtt.t
2 tttrrrr..tttt
3 .tt.rr...tt.t
4 htttr....trrf
5 tttttttt.trtf
6 ttttttt.rrrt.
7 trtrrrrrh....
8 trrrrr...rrrr

Turn = 11.
  0123456789012
0 ttttrrrrrttt.
1 ttttrrr.rtt.t
2 tttr.rr..tttt
3 .tttr....tt.t
4 tttttr...ttrt
5 tttttttt.trtt
6 ttttttrrrrtt.
7 trtrrrrh.....
8 trrrrr...rrrr

Turn = 12.
  0123456789012
0 ttttrrrrrrtt.
1 tttrrrr.rtt.t
2 ttrr..r..tttt
3 .tttrr...tt.t
4 tttttrr..ttrt
5 tttttr.r.tttt
6 tttrtrrr..tt.
7 tttrrrrhrr...
8 ttrrr.r..rrrr

Turn = 13.
  0123456789012
0 ttttrrrrrrtt.
1 tttrrr.rrrt.t
2 tttr...r.tttt
3 .ttttrr..tt.t
4 tttttt.r.tttt
5 tttttt.r.tttt
6 tttttrr...tt.
7 ttttrrrh.rr..
8 ttrrr..rrr.rr

Turn = 14.
  0123456789012
0 ttttrr.rrrtt.
1 tttt..rr.rt.t
2 ttttrr.rrtttt
3 .ttttttr.tt.t
4 tttttt.r.tttt
5 tttttt...tttt
6 tttttrr...tt.
7 ttttrrrhr.t.r
8 ttrrr..rrr.r.

Turn = 15.
  0123456789012
0 tttrr.rr.rtt.
1 tttt.r.r.tt.t
2 ttttrrrr.tttt
3 .ttttrrrttt.t
4 tttttt.r.tttt
5 tttttr...tttt
6 tttttrr...ttr
7 tttttrrrr.tr.
8 ttttt..rr.r..

Turn = 16.
  0123456789012
0 tttrrrr..rtt.
1 tttt.rr..tt.t
2 tttttrrr.tttt
3 .ttttt.r.tt.t
4 ttttttrrrtttt
5 tttttr...tttr
6 tttttrr...trr
7 ttttrrrrr.tr.
8 ttttt.r.r.t..

Turn = 17.
  0123456789012
0 ttttrr...rtt.
1 ttttrrr..tt.t
2 ttttttrr.tttt
3 .ttttt.rrtt.t
4 tttttt...tttt
5 ttttttr.ttttr
6 ttttttr...trr
7 ttttttrr.rtr.
8 tttttr...rt..

Turn = 18.
  0123456789012
0 ttttrrr..rtt.
1 ttttrr...tt.t
2 ttttrrrrrtrtt
3 .ttttr..rrr.t
4 tttttt...tttt
5 ttttttr.ttttt
6 tttttttr..rrt
7 ttttttt..rr.r
8 tttttt...rr..

Turn = 19.
  0123456789012
0 ttttrrr..ttt.
1 tttttrrr.rt.t
2 tttttr..rrrtt
3 .ttttt..rrt.t
4 tttttt...tttt
5 tttttttrttttt
6 ttttttt...rtt
7 ttttttt..rr.r
8 tttttt...rr..

Turn = 20.
  0123456789012
0 ttttrrrr.rtt.
1 tttttrr..rt.t
2 ttttt.r.rrrtt
3 .ttttt...rr.t
4 tttttt.rtrrtt
5 ttttttt.ttttt
6 ttttttt...ttr
7 ttttttt..rr.r
8 tttttt...rr..

Turn = 21.
  0123456789012
0 ttttttrr.rtt.
1 tttttrr.rrt.t
2 ttttt..r.rrtt
3 .ttttt.r.rr.t
4 tttttt..ttrtt
5 ttttttt.ttttt
6 ttttttt...ttt
7 ttttttt.r.r.t
8 tttttt..r.r..

Turn = 22.
  0123456789012
0 ttttttr.rrrt.
1 tttttrr.rrr.t
2 ttttt..rrrrtt
3 .ttttt..r.r.t
4 tttttt..ttttt
5 ttttttt.ttrtt
6 ttttttt...trr
7 tttttttr..rr.
8 tttttt.r..r..

Turn = 23.
  0123456789012
0 ttttttr.rrrr.
1 tttttrrr.rr.t
2 ttttt..rrrr.t
3 .ttttt.r.r.rt
4 tttttt..ttttt
5 ttttttt.ttttt
6 ttttttt...ttt
7 ttttttrr..tr.
8 ttttttr...t..

Turn = 24.
  0123456789012
0 tttttt.rrrr.t
1 ttttttrrrr.rt
2 ttttt.r..r.rt
3 .tttttr.r..tt
4 tttttt..tttrt
5 ttttttt.tttrt
6 ttttttt...trr
7 ttttttrr..tr.
8 ttttttt...t..

Turn = 25.
  0123456789012
0 tttttt.rrrr.r
1 ttttttrrr.rrr
2 ttttt.t.r..rr
3 .ttttttr...tt
4 tttttt..ttttt
5 ttttttt.ttttt
6 ttttttt...ttt
7 ttttttrr..tt.
8 ttttttt...t..

Turn = 26.
  0123456789012
0 tttttt.rrr..r
1 ttttttrrrrrrr
2 ttttt.tr...rr
3 .tttttrr...tt
4 tttttt..ttttt
5 ttttttt.ttttt
6 ttttttt...ttt
7 tttttttt..tt.
8 ttttttt...t..

Turn = 27.
  0123456789012
0 tttttt.rrr.r.
1 tttttttt...rr
2 ttttt.ttrrrrr
3 .tttttrr...tt
4 tttttt..ttttt
5 ttttttt.ttttt
6 ttttttt...ttt
7 tttttttt..tt.
8 ttttttt...t..

Turn = 28.
  0123456789012
0 tttttt.rrrr.r
1 tttttttt..r.r
2 ttttt.tt..r..
3 .ttttt.trtrtt
4 ttttttt.ttttt
5 ttttttt.ttttt
6 ttttttt...ttt
7 tttttttt..tt.
8 ttttttt...t..

Turn = 29.
  0123456789012
0 ttttttt.rrr.r
1 tttttttt.r..r
2 ttttt.tt.r...
3 .ttttt.tttttt
4 ttttttt.ttrrt
5 ttttttt.ttttt
6 ttttttt...ttt
7 tttttttt..tt.
8 ttttttt...t..

Turn = 30.
  0123456789012
0 ttttttt..rr.r
1 ttttttttrr.r.
2 ttttt.ttr....
3 .ttttt.tttttt
4 ttttttt.ttttt
5 ttttttt.ttttt
6 ttttttt...ttt
7 tttttttt..tt.
8 ttttttt...t..

Turn = 31.
  0123456789012
0 ttttttt..rr.r
1 ttttttttrrr..
2 ttttt.ttt....
3 .ttttt.tttttt
4 ttttttt.ttttt
5 ttttttt.ttttt
6 ttttttt...ttt
7 tttttttt..tt.
8 ttttttt...t..

Turn = 32.
  0123456789012
0 ttttttt..rrr.
1 ttttttttrrr..
2 ttttt.ttt....
3 .ttttt.tttttt
4 ttttttt.ttttt
5 ttttttt.ttttt
6 ttttttt...ttt
7 tttttttt..tt.
8 ttttttt...t..

Turn = 33.
  0123456789012
0 ttttttt..rrr.
1 ttttttttt.r..
2 ttttt.tttr...
3 .ttttt.tttttt
4 ttttttt.ttttt
5 ttttttt.ttttt
6 ttttttt...ttt
7 tttttttt..tt.
8 ttttttt...t..

Turn = 34.
  0123456789012
0 ttttttt..rr..
1 tttttttttr.r.
2 ttttt.tttt...
3 .ttttt.tttttt
4 ttttttt.ttttt
5 ttttttt.ttttt
6 ttttttt...ttt
7 tttttttt..tt.
8 ttttttt...t..

Turn = 35.
  0123456789012
0 ttttttt.rr...
1 ttttttttrr...
2 ttttt.tttt.r.
3 .ttttt.tttttt
4 ttttttt.ttttt
5 ttttttt.ttttt
6 ttttttt...ttt
7 tttttttt..tt.
8 ttttttt...t..

Turn = 36.
  0123456789012
0 tttttttrr....
1 tttttttttt...
2 ttttt.tttt.r.
3 .ttttt.tttttt
4 ttttttt.ttttt
5 ttttttt.ttttt
6 ttttttt...ttt
7 tttttttt..tt.
8 ttttttt...t..

Turn = 37.
  0123456789012
0 ttttttrrr....
1 tttttttttt...
2 ttttt.tttt.t.
3 .ttttt.tttttt
4 ttttttt.ttttt
5 ttttttt.ttttt
6 ttttttt...ttt
7 tttttttt..tt.
8 ttttttt...t..

Turn = 38.
  0123456789012
0 tttttttrr....
1 tttttttttt...
2 ttttt.tttt.t.
3 .ttttt.tttttt
4 ttttttt.ttttt
5 ttttttt.ttttt
6 ttttttt...ttt
7 tttttttt..tt.
8 ttttttt...t..

Turn = 39.
  0123456789012
0 tttttttt.t...
1 tttttttttt...
2 ttttt.tttt.t.
3 .ttttt.tttttt
4 ttttttt.ttttt
5 ttttttt.ttttt
6 ttttttt...ttt
7 tttttttt..tt.
8 ttttttt...t..

Turn = 40.
  0123456789012
0 tttttttt.t...
1 tttttttttt...
2 ttttt.tttt.t.
3 .ttttt.tttttt
4 ttttttt.ttttt
5 ttttttt.ttttt
6 ttttttt...ttt
7 tttttttt..tt.
8 ttttttt...t..

Turn = 41.
  0123456789012
0 tttttttt.t...
1 tttttttttt...
2 ttttt.tttt.t.
3 .ttttt.tttttt
4 ttttttt.ttttt
5 ttttttt.ttttt
6 ttttttt...ttt
7 tttttttt..tt.
8 ttttttt...t..

Turn = 42.
  0123456789012
0 tttttttt.t...
1 tttttttttt...
2 ttttt.tttt.t.
3 .ttttt.tttttt
4 ttttttt.ttttt
5 ttttttt.ttttt
6 ttttttt...ttt
7 tttttttt..tt.
8 ttttttt...t..

Turn = 43.
  0123456789012
0 tttttttt.t...
1 tttttttttt...
2 ttttt.tttt.t.
3 .ttttt.tttttt
4 ttttttt.ttttt
5 ttttttt.ttttt
6 ttttttt...ttt
7 tttttttt..tt.
8 ttttttt...t..

Turn = 44.
  0123456789012
0 tttttttt.t...
1 tttttttttt...
2 ttttt.tttt.t.
3 .ttttt.tttttt
4 ttttttt.ttttt
5 ttttttt.ttttt
6 ttttttt...ttt
7 tttttttt..tt.
8 ttttttt...t..

Turn = 45.
  0123456789012
0 tttttttt.t...
1 tttttttttt...
2 ttttt.tttt.t.
3 .ttttt.tttttt
4 ttttttt.ttttt
5 ttttttt.ttttt
6 ttttttt...ttt
7 tttttttt..tt.
8 ttttttt...t..

Turn = 46.
  0123456789012
0 tttttttt.t...
1 tttttttttt...
2 ttttt.tttt.t.
3 .ttttt.tttttt
4 ttttttt.ttttt
5 ttttttt.ttttt
6 ttttttt...ttt
7 tttttttt..tt.
8 ttttttt...t..

Turn = 47.
  0123456789012
0 tttttttt.t...
1 tttttttttt...
2 ttttt.tttt.t.
3 .ttttt.tttttt
4 ttttttt.ttttt
5 ttttttt.ttttt
6 ttttttt...ttt
7 tttttttt..tt.
8 ttttttt...t..

Turn = 48.
  0123456789012
0 tttttttt.t...
1 tttttttttt...
2 ttttt.tttt.t.
3 .ttttt.tttttt
4 ttttttt.ttttt
5 ttttttt.ttttt
6 ttttttt...ttt
7 tttttttt..tt.
8 ttttttt...t..

Turn = 49.
  0123456789012
0 tttttttt.t...
1 tttttttttt...
2 ttttt.tttt.t.
3 .ttttt.tttttt
4 ttttttt.ttttt
5 ttttttt.ttttt
6 ttttttt...ttt
7 tttttttt..tt.
8 ttttttt...t..

*** Darwin 25x29 ***
Turn = 0.
  01234567890123456789012345678
0 .t.t.t.rt..f.t...r...thh...r.
1 ...h.hhf.hff....r..f.......rf
2 ......t....f.f.......f..t.h..
3 .....t.h..f........r..f..t...
4 .t...r.tf..............f.....
5 h.............f.r..f......t..
6 ......r...........h.t......f.
7 ....r.f.....f..f..t......h.tf
8 ..........f...f......r.t.....
9 .......hf...r....h..........h
0 ..........fh.....ff..f...h...
1 ...............f.r....h......
2 ........r.......r.r........rh
3 ......h....r....r.....f......
4 .....f....th..h.....r.......f
5 .f.............t..t....t.....
6 .......r........t...t.t.h...f
7 ....h.h.h..tt......tt.f......
8 h.f....h....h.......ht.......
9 .....t..............tfh..f.f.
0 f..........t.h........t..t...
1 ....r.f..h.f...........h.f...
2 ......t.........f...r.h....r.
3 h.......t...h..........r...t.
4 ..f.h.f..r....rrh............

Turn = 4.
  01234567890123456789012345678
0 .t.t.rr.tt.f.t.......t...h.hr
1 ...t.rtt..ffr...r..f.........
2 .....rt....f.f....r..f..tt..r
3 ...r.r....f....r......f..t...
4 .t.....tt..............f.....
5 ..............f....f......tr.
6 ..r................tt......t.
7 ......f.....f..f..t........tf
8 ..........f...f........t.....
9 h.......f.....r.......r.....r
0 ..........fh...rrrr.r......rr
1 ....r..........rrrr......h..r
2 ....r...........r....r.......
3 .......hhr............f......
4 .....f....tt...t............f
5 .f.............t..t....t.....
6 ...r............t...t.t.....f
7 h.....h....tt......tt.t......
8 h.f........ht.......tt.......
9 .....t..............ttt..t.f.
0 f.....t....th.........t.tt...
1 h.....t....t............hf...
2 ......t........rr.......r....
3 ........tt......r.........rr.
4 ..f.rhf....rrr........h..r...

Turn = 8.
  01234567890123456789012345678
0 .t.trrr.trrr.tr......r.....hh
1 ...t..rt..f........f.r.......
2 .r....t....frf.......r..tt...
3 r........rfr..........f..t..r
4 .t.....tt..............f.....
5 r.............f....t......ttt
6 ................r..tr......t.
7 ......f.....f..f.rr.r.....rrt
8 ..........f...fr.......t.....
9 ........f................rr..
0 ........h.fh...r........r....
1 .......r......r..............
2 r...........r...r............
3 h....r................f.....r
4 .....f....tt...trrr.........r
5 .f.............t..t....t.h...
6 r...............t...ttt.....f
7 h......h...tt......tt.t......
8 h.f........tt..r....tt.......
9 .....tt.............ttt..t.f.
0 f.....t....trr........t.tt...
1 h.....t....rr...........tt...
2 ......t....rr...............r
3 ...r....tt..........r........
4 .r...hf...............rrrr...

Turn = 12.
  01234567890123456789012345678
0 .t.t..ttttrrrr...r.r.......hh
1 ...t..t...rr.......f.........
2 ......t.rr...f..r......rr....
3 r...r....r.r......r...fr.r...
4 rt.....tt..............f...r.
5 r.............frr..t......rt.
6 ...................tt...r.r.r
7 ......f...r.f.r.....t..t..rtt
8 ..........f...r........t.....
9 ........f.....r..............
0 ........h.fh...r....r........
1 ...........r................r
2 ........r....................
3 .r....................f......
4 r....f....tt...tt............
5 rf............rrt...t..t.....
6 r............r..t...ttt..r...
7 r..........tt.....rtt.t.....r
8 ..f........tt....r..tt...h...
9 r..r.tt.............ttt..t.f.
0 r.....t....tr.........t.tt...
1 h.....th...rr...........tt...
2 ......trr....................
3 ........tt..............r....
4 .r...hf...............rrr..rr

Turn = 16.
  01234567890123456789012345678
0 .t.t..tttr....rrrrr........hh
1 ...t..t.trr...rrr..f.........
2 ....rr.....r.f............r..
3 r..............r...rr....rr..
4 r......tt.r...r........rr....
5 rr.........r..r.r..t..r.r.rt.
6 ...................trr.....t.
7 ....r.f.....f.......t..t.r..r
8 ..........rr...........t.....
9 ........f.rr.................
0 ........h.r.....r..........r.
1 r..............r.............
2 r...r........................
3 ...............r......f......
4 .....f....tt...rt............
5 rf.r......r....tt...t..t.....
6 ..........r.....t...tttt.....
7 r..........tt......tt.t......
8 r.f........tt.......tt...t...
9 r..r.tt.............ttt..t.f.
0 h.....t....tr.........trtt...
1 ......tt...rr.....r.....tt..r
2 ......ttt........r...........
3 ........tt................r.r
4 ....rrr...........r........rr

Turn = 20.
  01234567890123456789012345678
0 .t.t..ttt....rrr......r..r.hh
1 ...t..rr..r..r.....f......r..
2 r..t.........rr..r...........
3 ..r.....r....r.rrr....r.....r
4 r......t.r........rrrr.......
5 ..........r.......rrr......t.
6 ...........r.......r.r..r..tt
7 r.....f...rrf.......t..t.r...
8 r.......rr.............t.....
9 rr......r.....rr.....r.......
0 ........h..r.r...............
1 ...rr..............r.........
2 r............................
3 ..r................r..f......
4 .....f....tt...rt..........r.
5 ...r..r........tt...t..t.....
6 .....rr.........t...tttt.....
7 r..........tt......tt.t......
8 r.f........tt.......tt...t...
9 .....r.r............ttt..trf.
0 r..r..t....tr.........tttt...
1 ....r.tt...rr...........tt...
2 ......ttt.................r..
3 ........tt................r.r
4 ...r....t.....r..rr.........r

Turn = 24.
  01234567890123456789012345678
0 rt.t.rttt....rr.....r.r.r..hh
1 ...rr.r..r..r...r..r.........
2 ............r......r....r....
3 ...r..r..r...r....r..........
4 .......tr....r...r...r.......
5 ........r.....r.......r....tt
6 r.......r....r.........t.r.tt
7 .r....rrh...f..rr.rtt..t....t
8 r...rr............r....tt....
9 ..r.r.....r........rr........
0 .............................
1 ...r.......r.................
2 .....................r.......
3 .r....r....r..........r.r....
4 ....rf....t.r..rt............
5 r..rr..........tt...t..t.....
6 r.....r.........t...tttt.....
7 ...r.......tt......tt.t......
8 ..f...r....tt.......tt...t.r.
9 .........r.r........ttt..ttt.
0 ......r....tr.........tttt...
1 .....rtt...rr...........tt...
2 ......ttt.............r......
3 r.......tt............r.r....
4 r.......t.r.........r.r.r....

Turn = 28.
  01234567890123456789012345678
0 r..tt.ttt.......rrrrrr.....hh
1 .rr....tr....................
2 .......tr....r.......r.......
3 .........r...rr........r.....
4 .....r..r................r...
5 ...rr..rr..rr..r....r.....rtt
6 ...rrr..........r...r..t..ttt
7 ..rrr..r....f..r...t...t....t
8 ..rr..........r........tt....
9 r.....r......................
0 r............................
1 .....r.........rr............
2 .................r.r.........
3 r..r......r...r...........r.r
4 ......rr.rtt...rt............
5 ...............tt...t..t.....
6 ..........rr....t...tttt.....
7 .rr....r...rt......tt.t......
8 ..f.........r.......tt...t.t.
9 r....r.....rr.......ttt..ttt.
0 ......r..rrrr.........tttt...
1 ......r....rr...........tt...
2 ......ttt.........r..........
3 ....r...tt........r.r...r....
4 ...r....tt............rr.....

Turn = 32.
  01234567890123456789012345678
0 r.rr..ttt....rr..r.r...r...hh
1 ....r..tt.........r.r........
2 ........tr..........r........
3 ........t....................
4 .rr........r.......r.r......r
5 rr.r..rr..................rtt
6 r.rr.......rrr.......r.t..ttt
7 ...........r.......t...t....t
8 r......rr.r..r.........tt....
9 ...rr.........rr.............
0 r....rr.........r............
1 r...r..r...r...............r.
2 ..r.......r..................
3 ...............rr............
4 ............r..rr............
5 .....r....r...rr.r..t..t.....
6 .....rr.rr..t...t..ttttt....r
7 ....r....rrrt......tt.t......
8 r.......r.......r...tt...t.t.
9 ...............r....ttt..ttt.
0 ........rr............trrt...
1 .rr.............r......rtt...
2 ......ttt.....r........r.....
3 r.....t.tt....r.r............
4 .......tttrr......r..........

*** Darwin 18x16 ***
Turn = 0.
  0123456789012345
0 .......rf..ft...
1 rf....f.........
2 r.h...f........f
3 ........f.r.r...
4 r...............
5 ..f..h.f....hrh.
6 ...........htr..
7 .fh...h.........
8 r......r........
9 ..r...r......h.r
0 f..fhf........ff
1 .r..r..fr...t...
2 ....h...........
3 ....rh.h.h......
4 .....t.t.f......
5 ...........h....
6 r..r........h...
7 ....r..r.......f

Turn = 2.
  0123456789012345
0 .......r...tt...
1 r.....f.r.......
2 rr....f........f
3 r.......f.....h.
4 ..h........hr...
5 ..f...hf..r.rr..
6 r...........rr..
7 .f..h...........
8 .........r......
9 ..h.r...r......r
0 f..f.f........f.
1 ..rrh.rf....tt.r
2 ....r...........
3 ....rh...h.h....
4 r....t.t.f.h....
5 ....r...........
6 ..............h.
7 ...r.r.........f

Turn = 4.
  0123456789012345
0 .........r.tt...
1 ..r...f.......h.
2 .r....f.r..h...f
3 .........r......
4 rrh..........r..
5 r.f...hf....r.r.
6 ...............r
7 .fh.....r.r.r...
8 ...........r....
9 ......r......r..
0 f.rr.f........f.
1 ..rr...f....tt..
2 r...hr.....h....
3 ....r.r...h..h.r
4 ....rrr.rf......
5 ................
6 ...............h
7 .r.r...........f

Turn = 6.
  0123456789012345
0 ..........ttt.h.
1 ....r.f....h....
2 ...r..f........f
3 ...........r....
4 r.h.....r......r
5 ..f...hfr......r
6 rr.............r
7 .fh........rr...
8 ............r...
9 ........r.rr....
0 rrr..f.....h..f.
1 rrr....f....tt..
2 ....h....r......
3 ...rrr......h..h
4 .....r.r.r......
5 ...............r
6 .....r.........h
7 rr.............f

Turn = 8.
  0123456789012345
0 ..........ttt.h.
1 .....rr....t....
2 r....rf........f
3 .............r..
4 ..h......r.....r
5 ..f...hrr..r...r
6 .r.............r
7 .rh..........r..
8 r.........rh....
9 r........rr.....
0 rr...f...r....f.
1 r.r....f..r.tt..
2 ..r.r...........
3 .r..r.........hh
4 .....r.....r....
5 ...............r
6 .r...r.r.......r
7 r....r.........f

Turn = 10.
  0123456789012345
0 r....rr...ttt.h.
1 ......r....t....
2 ......r........f
3 ...........r...r
4 ..h.......r..r.r
5 ..f...h.........
6 r......rr..h.r..
7 .r........r....r
8 .rr.....r.......
9 r.........r.....
0 rr...f....r...f.
1 ....r..f....tt..
2 .r.rr...........
3 r.r.......r...hh
4 .r...........r..
5 r....r.......r..
6 ......r......r..
7 ...r...r.......f

Turn = 12.
  0123456789012345
0 r....rr...ttt.h.
1 ....r......r....
2 ........r.rr...f
3 ...............r
4 ..h........r...r
5 .rf.....h.rh....
6 ...........r....
7 .r.....r........
8 r.....r.r......r
9 rrr.........r...
0 ...r.f......t.f.
1 r..r..rf....tt..
2 ......r.........
3 rr............hh
4 r.r............r
5 .......r..rr....
6 ........r..r....
7 .r.......r.....f

Turn = 14.
  0123456789012345
0 .r...rr...rtt.h.
1 ..r.......rr....
2 ..........r.r..f
3 .r.........h.r..
4 ..h......r......
5 .rf......h.r...r
6 .........r......
7 .....r..........
8 r...r...........
9 r...rr.r......r.
0 r...r...r...t.fr
1 rr...r.r....tt..
2 ........r.......
3 r.............hh
4 r...............
5 .........rr....r
6 ..r......rr.....
7 r.........rr...f

Turn = 16.
  0123456789012345
0 ...rr....rrrt.h.
1 rr........r.....
2 .....r.....hr.rf
3 .r.........r....
4 ..h....r........
5 ..f........h.r..
6 r......r........
7 ...r.r.r.......r
8 ..r.............
9 ..r............r
0 r...r.rr....t.f.
1 rr....r.....tt..
2 ........r.r....r
3 rr........r...hh
4 .........r......
5 ..........r.....
6 ........r......r
7 r.r......r..r..r

Turn = 18.
  0123456789012345
0 .r.rr..rr.r.t.h.
1 .r.........hr..r
2 r............rr.
3 .........r......
4 r.h..rr.........
5 ..f..r.r.....h.r
6 .....r..........
7 .r..............
8 r......r........
9 ....r.r........r
0 r...........t.f.
1 rr.r......r.tt.r
2 ....r....r..r..r
3 ......r...r...hr
4 ........r.......
5 .r..............
6 ......r.......r.
7 r...r......r..rr

Turn = 20.
  0123456789012345
0 .rrrrrr.r..htrhr
1 ............t...
2 ......r.........
3 r......r........
4 .rh.r..r......r.
5 ..f...r.......h.
6 ...r...r.......r
7 r.....r.........
8 ................
9 r.....r...r.....
0 r.r......r..t.fr
1 ...r.r....r.tt.r
2 ............tr..
3 ..............h.
4 ....r..........r
5 ......r.........
6 ....r...r...r.rr
7 rr....r......r..

Turn = 22.
  0123456789012345
0 r.r...rr...htth.
1 ...rrrr.....t..r
2 ................
3 ..r..r..........
4 .rr..r..........
5 r.r...r.r.....rr
6 .r....r.........
7 ..........r.....
8 r........r.....r
9 r.......r.r.....
0 ....r.......t.fr
1 r....r.r....ttr.
2 ............r...
3 ............r..h
4 ..............r.
5 ...............r
6 ..r.r.....r....r
7 r.r...rrr......r

Turn = 24.
  0123456789012345
0 r.....r....tttt.
1 ............t...
2 .rrrr.rr........
3 ...rrrr........r
4 r..r...........r
5 r.........r.....
6 r...r....rr.....
7 r.r.......r...r.
8 ..r.............
9 ..........r....r
0 ......r.....t.rr
1 .......r.r..trr.
2 ..........r...r.
3 r..............h
4 ...............r
5 r...........rr..
6 r.......r......r
7 ...rr.r.r.r.....

*** Darwin 28x23 ***
Turn = 0.
  01234567890123456789012
0 ..r.........h..r...h...
1 .......t...hf.....t....
2 ..htrrr..r.f......h..f.
3 ....hr....t...h........
4 ....hr.fh....h..h..f.r.
5 f...rtt.rf....r....t.tr
6 .t............hf.......
7 ft...hr.r.r..ft....r...
8 ......ht.........tt....
9 .......r.....t..r...r..
0 .......................
1 ..rffrh..f....f.t.fh...
2 .f...fr.......r....f...
3 ...rh..f.........t.r...
4 .......h.t........f....
5 ...t..tt.....f......rt.
6 t.rf.....rt.r..........
7 .....hfr.r....f...r...f
8 .................r...t.
9 ...r...r.t..f.r.fr..rh.
0 h..........th.r...h.r.r
1 ..h..f..ht..tr.t...ft.t
2 ....ft.t......t.......r
3 ....h.....t..tt..f.htrr
4 .rt....f.r......ft..h..
5 f..t.tr......t......f.r
6 ...r.htr......ffh.h.r..
7 ..t..t.........r...h...

Turn = 2.
  01234567890123456789012
0 ....r......hh...r......
1 ....rr.t....f.h...t....
2 ...t...rh..f.h..h..h.f.
3 ....rr....t............
4 ..h.rttf.r.........t..r
5 f...rtt.r.r........r.tt
6 .t..........r.rfh..r...
7 ft..r.r......tt........
8 .....h.t.........tt....
9 .....h...r...tr.......r
0 ....r..................
1 ...rrh...f....f.t.fh...
2 .f.r.f......r......f...
3 ....r..f.........t.....
4 ......rt.t........fr...
5 ...trhtt.....f....r..t.
6 rr.t..r.r.rr......r....
7 ......rr......f.......f
8 ...............r....rt.
9 ..h......t..fr..f.rr..t
0 .h.....r...ttr....h...t
1 ...r.tr..t..t.rt...ft.t
2 ....ft.t......r.....rrr
3 ......r...t..tt..t.tt..
4 ..t...rf........fth....
5 f..t.t.......t......rr.
6 .r.t.tt..r....ff..r....
7 ..t..t.r......r.h.hh...

Turn = 4.
  01234567890123456789012
0 ....r.r.h..hhhh...t....
1 .....rrt....f.....t....
2 ...t.r...r.f..h......f.
3 ....r...r.t........h...
4 ....rrrr..t........r..r
5 f.r..tt............r.tr
6 .th.......r....f..r....
7 ttr.r........tt........
8 ...hr..t......r.htt...r
9 ...........rrr.........
0 ...rrh.................
1 ....hr...f....f.t.fh...
2 .f..r.....r........f...
3 .....hrf.........t.....
4 ......rrtt........f..r.
5 .r.t..r......f..r....t.
6 ...t.rr..r......r...r..
7 r.h.rrr.......f.......f
8 ..........r..r.......t.
9 .........t..rr..f.r...t
0 ...h.......tt..r..rr.rt
1 ....rr.r.t..t.rr...tt.r
2 ....ttrr....r.....r...r
3 ...r....r.t..tt..t.tt..
4 ..t....f........tth.t..
5 f..t.t.......t.....r...
6 ...t.tt.......ffr......
7 .tt..t..rr..r...h.hh...

Turn = 6.
  01234567890123456789012
0 ...r.r.rrr.hhhh...t....
1 ......rrr...f.....t....
2 ...rr..r...fh........f.
3 ...tr.r...t............
4 .....r....t......r.hr..
5 rr...r.r.........r...t.
6 .tt.r...r......fr.....r
7 ttrr.........tt.......r
8 ..trr..t....rrt..tt....
9 .......................
0 .....r.....r....h......
1 ..h..r...f....f.t.fh...
2 .f...hr.r..........f...
3 .r....r.t........t.....
4 ......rrtt........f.r.r
5 ..ht.rr......fr......t.
6 ...trr.r......r........
7 .............rf.......f
8 ...........r......r..r.
9 r...rr...t..t..rf...rtt
0 .....hr...rtt.r..r.r..t
1 ..r.t.r..t..t......r..t
2 ....ttt...r.....r...r..
3 .........rr..tt..t.tt.r
4 ..tr...f........tth.t..
5 f..r.t.......t...r.....
6 ...r.tt..r....rrr......
7 .tt..t..r.r.....h.hh...

Turn = 8.
  01234567890123456789012
0 .r.r..rrrr.hhhh...t....
1 .....rrrr...f.....t....
2 ....r......fh........f.
3 ...r.r....t............
4 r...r.....t....r..r....
5 .t.rr..r.r.....r.....t.
6 .tt.r.r.....r..rr..h..r
7 tt.r.........rt.......r
8 ..rr...t.....tt..tt....
9 .......................
0 ..rr.h..........t......
1 h..r....rf....f.t.fh...
2 .r.....r...r.......fr.r
3 .rh...rrt........t.....
4 ........tt........f....
5 ...tt.r.....rr.......t.
6 ...ttrrr....r.r...r....
7 .............r.r.....rf
8 ......r..t....r....r...
9 .....r...t..t...f....rt
0 ....rr.....tt......r.rt
1 rr..rt...t..t.........t
2 ....ttt.rrr...t....rr..
3 .............tt..t.rt..
4 ..tt...f.r......ttt.t..
5 f...rt..r.r..t..t.....r
6 ..t..tt.....rr..r......
7 .tt..t..r......r..hh...

Turn = 10.
  01234567890123456789012
0 rr....rrrr.hhhh...t....
1 ...r..rr.r..f.....t....
2 r.r........fh........f.
3 .......r..t............
4 ....r.....t.rr..r......
5 .t.rr.r..rt..r.......t.
6 .ttrr...............r..
7 tttr.........tt.....r..
8 .....h.t...r..trttth...
9 ..r.....r..............
0 .r.r............t...r.r
1 h.r...r..f....f.t.fh...
2 r.r.....r..........f...
3 r.....rrr........t.....
4 ........tt.r..r...r....
5 ...tt.....rr...r..r..r.
6 ...tttr...r..........r.
7 ......r........r......f
8 .......r.t.....r.r.....
9 .r.r.....t..t...f....rr
0 ...r...r...tt.......rrr
1 ....rr...t..t.......r.r
2 ....rtrr.r....t....r..r
3 r....r..rr...tt..t..r..
4 ..tt...f..r.....ttt.t..
5 f....t.......t..t......
6 ..t..tt...rr....t......
7 .tt..tr...r..r....hh..r

Turn = 12.
  01234567890123456789012
0 r.....rrrr.hhhh...t....
1 rr...r.....rf.....t....
2 rr.....r...fr........f.
3 .........tt.r..........
4 ......r...rrr.r........
5 .tr.r...rr.r.........t.
6 .trrrh............r....
7 ttrr....r....tt...r....
8 ...r...t.r....ttttt.r.r
9 r.....r................
0 r...............t..h...
1 r..r..r..f....f.t.fh...
2 r...r.....r...r....f...
3 r.....r........r.t.....
4 ........ttr......r...r.
5 ...tt..rrr.........rr..
6 ...tttt.r..............
7 .r....t..........r...rf
8 .........t......r......
9 .r...r...t..t...fr..r..
0 .r.....r.t.tt.......rrr
1 ..r.....rt..t......rr..
2 .....rr...r...t........
3 ......rr..r..tt..t...rr
4 r.ttr..f........tttrt..
5 .r...t....r..t..t......
6 ..t..tt.rr......t......
7 .tt..tt....rr.....hh..r

*** Darwin 12x25 ***
Turn = 0.
  0123456789012345678901234
0 f.fh..ht.rr.ftfhfrf.htr.f
1 ht.trhththhfrr.r...rh..hh
2 t....ft.rfr.rf..hh....hrr
3 f..tff.ffttthhff..h.hrfft
4 .r.hf...h.hr..f.f.fttffrt
5 thtrt.fr.thttr.fhth.h.ff.
6 hh..fr.r.f.rhhh.f.f.fhhtt
7 .r.tt.rhrthff.r.t..ff....
8 thttrhff.trf.tthf..rth.t.
9 tt.....ff.t.ttth.fft.rtr.
0 ft.trt.th.thfhrt..ttf....
1 ..rth.rtfrhhf..fh.....ft.

Turn = 4.
  0123456789012345678901234
0 t.tt..ttrr..rrrhrrf.tt.rr
1 tr.th.t.tt.rrrr.r...h.hrr
2 tr..rtttt.tt.r...r....hrr
3 f.r.tf.tttttthfrhr....trr
4 ..r.t..rhtrt..rrfttttttrr
5 ttttt....rrtt.rh.tt.hrtt.
6 t...ttrrrr.rt.rtt.t.fr.tt
7 .htrr.r..rhr.r.tt..r.r..r
8 tttrrhr.rr.frrr.f..r.rtt.
9 tt..rr.rrrrttrrrhftt.tt..
0 ttr..t.tt.thf.tr..ttt....
1 r..r.tttt.thfh.rr.....tt.

Turn = 8.
  0123456789012345678901234
0 t.tt..tttrr..rr...f.tttr.
1 t.ttt.t.tt.trrrrr...t.hrr
2 rr..rrttt.ttt.rrrr....hrt
3 r...rrttttttttrr.t....ttt
4 .tt....ttrtt..ttttttttttt
5 tttttr...rtttttt.tt.tttt.
6 t...ttrrr..ttr.tt.tr...tt
7 .tttttrrr..rrr.ttt.....tt
8 ttrtt.....tr..r.t...rt..t
9 ttr....trrrrr.rtttttttt..
0 tt...tttrrrrrrr.r.tt...t.
1 tt.rtttrr.rrfrr....rr.tt.

Turn = 12.
  0123456789012345678901234
0 tttt..tttt...rr.rr.rttr.r
1 t.ttt.t.tttttt..r..r.rrrr
2 r...t.rrt.ttt...r..r..rtr
3 r....rr.trtttttttt....ttr
4 .tt.rr.rrrtt..tttttrttttt
5 ttttrrrr.rttrttt.ttrtttt.
6 t...rt...r.rrt.tt.t....tt
7 .tttttrr.rrrr..ttt.....tt
8 ttttt...rrr..r.tt...tt..t
9 ttt....ttrrrrr.ttttt.tt..
0 tt...tttttrrr...ttttt..t.
1 ttr.rrtttt.rrr...r.tt.tt.

Turn = 16.
  0123456789012345678901234
0 tttt..tttrr.....rr.rrrrrr
1 r.ttt.t.tttttt.r....rrrrr
2 r...t.rtt.ttt......r.r.t.
3 .rtrrrr.tttrrttttt..rtttt
4 .ttr.r...rrrr.ttttttttttt
5 ttt.r...rrrrrrtt.ttttttt.
6 t..r..rr.rr.rr.tt.t....tt
7 .tttt..rr..rr.rrtt.....tt
8 tttt..rrrrr.r.rtr...tt..t
9 ttt...rrtrr.r..ttttt.tt..
0 tt...rrrtrrrr...ttttt..t.
1 ttt.rrrrttrr.r..t.ttt.tt.

Turn = 20.
  0123456789012345678901234
0 tttt.rttttt.......r.rrrr.
1 t.rrrrt.tttttt..rrrr..r.r
2 ..rr.rrtt.ttt..r.r...rrrr
3 ..rr..rrttttttrtttr..trrt
4 tttt.....trrrrrttrttttrtt
5 ttt..r.r.rrrrrrt.rtttttt.
6 t.t....rr.rrtt.trrt....tt
7 .ttttt.rrr.r.r.trr.....tt
8 tttt...rr.....rrr...tt..t
9 ttrr.rrrrr.r..r.rttt.tt..
0 ttt....rr.rrrrrr.tttt..t.
1 ttrrr.rrrrrr....t.ttt.tt.

Turn = 24.
  0123456789012345678901234
0 tttrrrrrttt...r.....rrrr.
1 t.ttrrr.ttttttr..rrrrrr.r
2 ..tt.r.rt.ttt..rr..r...r.
3 tt.r...rtttttrrrrrrrrtttt
4 tttt...r.trrrrtrrr.r.ttr.
5 ttt.....rrrrrrrrrrttttttr
6 t.t.r.r...rrrr.rrr.r...tr
7 .ttttrr.rrr.rrrrr......tt
8 ttttrrr.r.rr.r..rt..tt..t
9 ttt.r..rr.r.....tttt.tt..
0 ttttr....rr....r.tttt..t.
1 ttrrr...rrrrrr.rt.ttt.tt.

Turn = 28.
  0123456789012345678901234
0 ttttrrr.ttt.trr..r.rrrrr.
1 t.tttrrrttttt...rrrr.rr..
2 ..ttrrr.t.ttt...rr...rrr.
3 tt.t...rrttrttrrr.r..rttr
4 tttt...r.ttrrrrrrrrrrrttr
5 ttt......rrrrrrr...trrrt.
6 t.ttr..rrr.rrrrr.rrrrr.t.
7 .tttrrr..rrr...rrr.r...tt
8 ttttr.r.rrr....rr...tt..t
9 ttttr..r..r....r.ttt.tt..
0 tttt..r.r..r.rr.rrrr.r.t.
1 ttrr..rrrrrr.r...tttt.tt.

Turn = 32.
  0123456789012345678901234
0 tttttrrr.tt.tt.rrrr.rrr..
1 t.ttrrrttttttrr..r.rrrr.r
2 ..tt...rt.ttt..r..rrr.rtr
3 tt.ttr...rttttr....r.r.tr
4 tttrr..rrrttttt.rrrrr..tr
5 ttt...rrrrrttttr..rrrr.t.
6 t.ttt..rrtrrrr.rr.rr..rt.
7 .tttt.rr.t....rr.....r.tt
8 ttttt.r.....rrr..r.rttr.t
9 ttttt.r..rr.rrr..rrr.tt..
0 tttttrr.r......r.t..tttt.
1 tttt...r..rr.rrrttttt.tt.

Turn = 36.
  0123456789012345678901234
0 tttrrr.rrttrrtrrr.r.rr...
1 t.tr.rrrrttr.tt.rr.rrr.tr
2 ..ttttt..tttt...rr..rrrtr
3 tt.tt.t..tttttt.......rrt
4 ttttt..r.rrtttrrrr.r...tr
5 ttt..rr.rrrrtt.rrr...r.rr
6 t.ttt.rrrr.rrt...r...r.tt
7 .ttttr..rrr..rr...rrrr.tt
8 ttttr.....r.rrrr..rrrrr.t
9 ttttrt.r.rr..rr..r..trr..
0 tttttrr.....rr.rr.t.trtt.
1 ttttt.......rrrrttttt.tt.

*** Darwin 14x10 ***
Turn = 0.
  0123456789
0 t..ht.....
1 .r.t.t..r.
2 .h..h....r
3 ..h.ht....
4 ...h......
5 ..........
6 ...h...f.f
7 .r.h...hh.
8 ......tr.h
9 ...hht...t
0 ....h...ft
1 .......t..
2 .....h...r
3 .........r

Turn = 1.
  0123456789
0 t.h.t...r.
1 r..t.t...r
2 h.h.h.....
3 ....ht....
4 ..h.......
5 ..........
6 ...hh..fhf
7 .......h.h
8 .r....rr..
9 ...hht...t
0 ...h....ft
1 .....h.t.r
2 ..........
3 .........r

Turn = 2.
  0123456789
0 th..t...rr
1 r.ht.t....
2 h...h.....
3 ....tt....
4 .h........
5 ...h....h.
6 .....h.f.f
7 .......h.h
8 ....h.rr..
9 .rh..t...t
0 .....h..fr
1 ...h...t.r
2 ..........
3 .........r

Turn = 3.
  0123456789
0 rhh.t..r.r
1 r..t.t....
2 h...t.....
3 ....tt....
4 h..h....h.
5 ..........
6 ......hf.f
7 ....h..r.h
8 .......r..
9 .h...tt..r
0 .r...h..fr
1 .......t.r
2 ...h......
3 ........r.

Turn = 4.
  0123456789
0 rhh.t.r.r.
1 r..t.t....
2 h...t.....
3 ...htt..h.
4 h.........
5 ..........
6 ....h.hr.f
7 .......r.h
8 .......r..
9 h....tt.rr
0 .....h..f.
1 .r.....tr.
2 ..........
3 ...h...r..

Turn = 5.
  0123456789
0 rhh.tr.r..
1 .r.t.t....
2 h..ht...h.
3 ....tt....
4 h.........
5 ....h..r..
6 ......hr.f
7 .........h
8 ......r..r
9 h....ttr..
0 .....h..f.
1 .......rr.
2 .r........
3 ...h..r...

Turn = 6.
  0123456789
0 rhh.rrr...
1 ..tt.t..h.
2 h..ht.....
3 ....tt....
4 h...h..r..
5 .......r..
6 ......h..f
7 .........r
8 .....r...r
9 h....trr..
0 .....h..f.
1 .......rr.
2 ..........
3 .r.h.r....

Turn = 7.
  0123456789
0 rhh.rt..h.
1 ..ttrt....
2 h..tt.....
3 ....tt.r..
4 h...h..r..
5 ..........
6 .......h.r
7 .........r
8 ....r....r
9 h....trr..
0 .....t..r.
1 ........r.
2 .......r..
3 .r.hr.....

Turn = 8.
  0123456789
0 h.tr.t..h.
1 r.ttrt....
2 h..rt..r..
3 ....tt.r..
4 h...h.....
5 ..........
6 ........hr
7 .........r
8 ...r....r.
9 h....tr...
0 .....t.rr.
1 ........r.
2 ..........
3 ..rrr..r..

Turn = 9.
  0123456789
0 h.tr.t..h.
1 r.tttt.r..
2 r.r.t..r..
3 ....tt....
4 h...h.....
5 ..........
6 ........hr
7 .........r
8 ..r....r..
9 h....tt...
0 .....t..r.
1 .......r.r
2 ..........
3 ..rrr..r..

Turn = 10.
  0123456789
0 h.tr.t.rh.
1 r.tttt.r..
2 rr..t.....
3 ....tt....
4 h...h.....
5 .........r
6 ........hr
7 ..........
8 .r....r...
9 h....tt...
0 .....t...r
1 .........r
2 ....r..r..
3 ..rr..r...
